<?xml version="1.0" encoding="UTF-8" standalone="no"?>
<!-- Created with Inkscape (http://www.inkscape.org/) -->

<svg
   xmlns:dc="http://purl.org/dc/elements/1.1/"
   xmlns:cc="http://creativecommons.org/ns#"
   xmlns:rdf="http://www.w3.org/1999/02/22-rdf-syntax-ns#"
   xmlns:svg="http://www.w3.org/2000/svg"
   xmlns="http://www.w3.org/2000/svg"
   xmlns:sodipodi="http://sodipodi.sourceforge.net/DTD/sodipodi-0.dtd"
   xmlns:inkscape="http://www.inkscape.org/namespaces/inkscape"
   width="210mm"
   height="297mm"
   viewBox="0 0 210 297"
   version="1.1"
   id="svg1544"
   inkscape:version="0.92.2 2405546, 2018-03-11"
   sodipodi:docname="mr_flusp_coding.svg">
  <defs
     id="defs1538" />
  <sodipodi:namedview
     id="base"
     pagecolor="#ffffff"
     bordercolor="#666666"
     borderopacity="1.0"
     inkscape:pageopacity="0.0"
     inkscape:pageshadow="2"
     inkscape:zoom="0.66780004"
     inkscape:cx="388.08895"
     inkscape:cy="522.79962"
     inkscape:document-units="mm"
     inkscape:current-layer="layer1"
     showgrid="false"
     inkscape:window-width="1680"
     inkscape:window-height="1028"
     inkscape:window-x="0"
     inkscape:window-y="22"
     inkscape:window-maximized="1" />
  <metadata
     id="metadata1541">
    <rdf:RDF>
      <cc:Work
         rdf:about="">
        <dc:format>image/svg+xml</dc:format>
        <dc:type
           rdf:resource="http://purl.org/dc/dcmitype/StillImage" />
        <dc:title />
      </cc:Work>
    </rdf:RDF>
  </metadata>
  <g
     inkscape:label="Camada 1"
     inkscape:groupmode="layer"
     id="layer1">
    <ellipse
       style="opacity:1;fill:#000000;fill-opacity:1;fill-rule:evenodd;stroke:#000000;stroke-width:2.04384112;stroke-linejoin:round;stroke-miterlimit:4;stroke-dasharray:none;stroke-opacity:1"
       id="path1157"
       cx="162.522"
       cy="207.57564"
       rx="21.847555"
       ry="7.8869896"
       transform="matrix(0.99953571,0.03046907,-0.06252309,0.99804352,0,0)" />
    <rect
       style="opacity:1;fill:#757575;fill-opacity:1;fill-rule:evenodd;stroke:#000000;stroke-width:2.04331493;stroke-linejoin:round;stroke-miterlimit:4;stroke-dasharray:none;stroke-opacity:1"
       id="rect1155"
       width="9.0319557"
       height="15.684922"
       x="145.96347"
       y="196.83194" />
    <ellipse
       style="opacity:1;fill:#757575;fill-opacity:1;fill-rule:evenodd;stroke:#000000;stroke-width:2.05099845;stroke-linejoin:round;stroke-miterlimit:4;stroke-dasharray:none;stroke-opacity:1"
       id="path1119-6"
       cx="144.92755"
       cy="-140.58882"
       rx="39.883698"
       ry="28.203875"
       transform="matrix(0.14145998,0.98994398,-0.99980866,0.01956118,0,0)" />
    <ellipse
       style="opacity:1;fill:#757575;fill-opacity:1;fill-rule:evenodd;stroke:#000000;stroke-width:2.04341674;stroke-linejoin:round;stroke-miterlimit:4;stroke-dasharray:none;stroke-opacity:1"
       id="path1119"
       cx="148.93195"
       cy="190.86382"
       rx="39.554653"
       ry="11.93765"
       transform="matrix(0.99964069,-0.02680481,0.01268286,0.99991957,0,0)" />
    <path
       inkscape:export-ydpi="293.84"
       inkscape:export-xdpi="293.84"
       inkscape:export-filename="/home/siqueira/Pictures/flusp.png"
       sodipodi:nodetypes="ccc"
       inkscape:connector-curvature="0"
       id="path3223"
       d="m 131.97629,149.82574 c -6.40261,-12.63061 -46.819307,11.42991 -42.805033,22.21222 6.402565,12.6306 46.819263,-11.42992 42.805033,-22.21222 z"
       style="opacity:1;fill:#0095ad;fill-opacity:1;stroke:#000000;stroke-width:2.54778218;stroke-linecap:round;stroke-linejoin:round;stroke-miterlimit:4;stroke-dasharray:none;stroke-dashoffset:0;stroke-opacity:1"
       inkscape:transform-center-x="20.168919"
       inkscape:transform-center-y="10.749301" />
    <path
       inkscape:export-ydpi="293.84"
       inkscape:export-xdpi="293.84"
       inkscape:export-filename="/home/siqueira/Pictures/flusp.png"
       sodipodi:nodetypes="cczac"
       inkscape:connector-curvature="0"
       id="path3227"
       d="m 160.69432,139.66118 h -19.65496 c -21.54964,-7.31973 -21.71425,32.20625 -9.56124,46.23055 12.15307,14.02433 34.2474,11.41858 42.79595,0 9.62601,-12.85784 4.89983,-52.52249 -13.57975,-46.23055 z"
       style="opacity:1;fill:#0095ad;fill-opacity:1;stroke:#000000;stroke-width:2.54731226;stroke-linecap:round;stroke-linejoin:round;stroke-miterlimit:4;stroke-dasharray:none;stroke-dashoffset:0;stroke-opacity:1" />
    <path
       inkscape:export-ydpi="293.84"
       inkscape:export-xdpi="293.84"
       inkscape:export-filename="/home/siqueira/Pictures/flusp.png"
       sodipodi:nodetypes="cc"
       inkscape:connector-curvature="0"
       id="path3333"
       d="m 159.0127,194.95186 c -7.17748,-1.92292 -10.05168,8.19465 -2.7223,10.15827"
       style="fill:none;stroke:#693a20;stroke-width:2.54778218;stroke-linecap:butt;stroke-linejoin:miter;stroke-miterlimit:4;stroke-dasharray:none;stroke-opacity:1" />
    <path
       inkscape:export-ydpi="293.84"
       inkscape:export-xdpi="293.84"
       inkscape:export-filename="/home/siqueira/Pictures/flusp.png"
       style="fill:none;stroke:#693a20;stroke-width:2.54778218;stroke-linecap:butt;stroke-linejoin:miter;stroke-miterlimit:4;stroke-dasharray:none;stroke-opacity:1"
       d="m 147.03347,194.95186 c -7.17747,-1.92292 -10.05169,8.19465 -2.72229,10.15827"
       id="path3335"
       inkscape:connector-curvature="0"
       sodipodi:nodetypes="cc" />
    <path
       inkscape:export-ydpi="293.84"
       inkscape:export-xdpi="293.84"
       inkscape:export-filename="/home/siqueira/Pictures/flusp.png"
       sodipodi:nodetypes="cccc"
       inkscape:connector-curvature="0"
       id="path3225"
       d="m 96.206226,139.64915 c 16.945124,-5.90996 19.581344,-10.5726 24.891564,5.473 -11.72239,12.58389 -22.598513,7.09496 -26.063776,-3.14152 -0.321171,-0.97044 0.201632,-2.01029 1.172232,-2.33148 z"
       style="opacity:1;fill:#382810;fill-opacity:1;stroke:#000000;stroke-width:1.45587528;stroke-linecap:round;stroke-linejoin:round;stroke-miterlimit:4;stroke-dasharray:none;stroke-dashoffset:0;stroke-opacity:1"
       inkscape:transform-center-x="7.6636643"
       inkscape:transform-center-y="5.2376476" />
    <path
       inkscape:export-ydpi="293.84"
       inkscape:export-xdpi="293.84"
       inkscape:export-filename="/home/siqueira/Pictures/flusp.png"
       sodipodi:nodetypes="sscccccsscs"
       inkscape:connector-curvature="0"
       id="path3231"
       d="m 167.38225,106.01179 c 2.27045,5.57794 4.36626,15.74911 4.29238,22.05022 -0.13009,11.09959 -5.02961,17.12901 -13.53174,14.4957 -1.47088,5.20849 -5.07944,3.50441 -7.2454,2.04989 -0.69839,4.30843 -4.41908,4.36135 -7.24539,2.04987 -0.39342,2.86988 -2.99917,5.16789 -7.24543,2.04989 -0.45505,3.72597 -4.79821,4.79497 -7.24541,2.0499 -10.17547,4.23569 -8.91328,0.048 -12.27293,-6.51702 -0.42439,-0.82922 -1.94643,-6.7687 -2.31026,-7.65281 -1.9387,-4.71101 -8.65246,-5.18315 -9.84375,-9.08402 -11.593901,-43.80362 50.57274,-51.157444 62.64793,-21.49162 z"
       style="opacity:1;fill:#0095ad;fill-opacity:1;stroke:#000000;stroke-width:2.54778218;stroke-linecap:round;stroke-linejoin:round;stroke-miterlimit:4;stroke-dasharray:none;stroke-dashoffset:0;stroke-opacity:1"
       inkscape:transform-center-x="-6.2915507"
       inkscape:transform-center-y="-16.359905" />
    <path
       inkscape:connector-curvature="0"
       id="path3233"
       d="m 117.6094,137.10446 a 8.7285409,8.7298297 74.202603 0 0 -2.82101,9.07522 8.7285409,8.7298297 74.202603 0 0 10.77652,6.02242 8.7285409,8.7298297 74.202603 0 0 6.01222,-6.02267 8.7285409,8.7298297 74.202603 0 1 -3.20302,1.7002 8.7285409,8.7298297 74.202603 0 1 -10.77631,-6.02227 8.7285409,8.7298297 74.202603 0 1 0.0122,-4.7529 z"
       style="opacity:1;fill:#0095ad;fill-opacity:1;stroke:#000000;stroke-width:2.54778218;stroke-linecap:round;stroke-linejoin:round;stroke-miterlimit:4;stroke-dasharray:none;stroke-dashoffset:0;stroke-opacity:1"
       inkscape:transform-center-x="19.585445"
       inkscape:transform-center-y="-2.5511647" />
    <ellipse
       cy="170.86906"
       cx="80.634377"
       id="circle3235"
       style="opacity:1;fill:#0095ad;fill-opacity:1;stroke:none;stroke-width:2.54778218;stroke-linecap:round;stroke-linejoin:round;stroke-miterlimit:4;stroke-dasharray:none;stroke-dashoffset:0;stroke-opacity:1"
       rx="9.4919605"
       ry="9.4905586"
       transform="rotate(-15.797397)"
       inkscape:transform-center-x="16.827863"
       inkscape:transform-center-y="-3.3391397" />
    <path
       style="opacity:1;fill:#00c5d4;fill-opacity:1;stroke:#00ffff;stroke-width:2.54778218;stroke-linecap:round;stroke-linejoin:round;stroke-miterlimit:4;stroke-dasharray:none;stroke-dashoffset:0;stroke-opacity:1"
       d="m 124.94133,144.42643 a 6.4741899,6.4695139 67.746287 0 0 1.84634,6.80253 6.4741899,6.4695139 67.746287 0 0 9.13562,-0.51534 6.4741899,6.4695139 67.746287 0 0 1.36384,-6.16074 6.4741899,6.4695139 67.746287 0 1 -1.32668,2.33793 6.4741899,6.4695139 67.746287 0 1 -9.13542,0.51537 6.4741899,6.4695139 67.746287 0 1 -1.8837,-2.97975 z"
       id="path3239"
       inkscape:connector-curvature="0"
       inkscape:transform-center-x="12.767565"
       inkscape:transform-center-y="4.3923714" />
    <ellipse
       ry="7.0384216"
       rx="7.0352902"
       transform="matrix(0.66577962,-0.74614844,0.74576936,0.66620422,0,0)"
       style="opacity:1;fill:#0095ad;fill-opacity:1;stroke:none;stroke-width:2.54778242;stroke-linecap:round;stroke-linejoin:round;stroke-miterlimit:4;stroke-dasharray:none;stroke-dashoffset:0;stroke-opacity:1"
       id="ellipse3241"
       cx="-20.920691"
       cy="194.51703"
       inkscape:transform-center-x="12.055634"
       inkscape:transform-center-y="2.5030559" />
    <path
       inkscape:export-ydpi="293.84"
       inkscape:export-xdpi="293.84"
       inkscape:export-filename="/home/siqueira/Pictures/flusp.png"
       sodipodi:nodetypes="ccsscc"
       inkscape:connector-curvature="0"
       id="path3321"
       d="m 106.07882,118.74542 c 10.57119,11.76251 9.00408,22.28964 -6.486454,22.67938 -3.789141,0.0152 -8.131275,-3.84608 -10.099203,-1.91249 -2.41745,2.37531 -1.678909,11.17793 -1.678909,11.17793 -0.07343,0.87009 -1.708089,-0.24722 -1.945785,-1.08735 -8.566676,-21.69478 11.57656,-27.76312 20.210351,-30.85747 z"
       style="opacity:1;fill:#382810;fill-opacity:1;stroke:#000000;stroke-width:1.45587528;stroke-linecap:round;stroke-linejoin:round;stroke-miterlimit:4;stroke-dasharray:none;stroke-dashoffset:0;stroke-opacity:1"
       inkscape:transform-center-x="36.799876"
       inkscape:transform-center-y="-23.980821" />
    <circle
       style="opacity:1;fill:#ffffff;fill-opacity:1;fill-rule:evenodd;stroke:none;stroke-width:1.34599996;stroke-linejoin:round;stroke-miterlimit:4;stroke-dasharray:none;stroke-opacity:1"
       id="path967"
       cx="127.12833"
       cy="111.41328"
       r="14.544525" />
    <g
       id="g959"
       transform="translate(-1.1390791,1.386705)">
      <path
         inkscape:transform-center-y="-24.328957"
         inkscape:transform-center-x="-6.2583482"
         sodipodi:nodetypes="ccc"
         inkscape:connector-curvature="0"
         id="path3323"
         d="m 134.10437,107.06198 c 6.12795,4.28579 3.26301,14.33094 -4.34256,16.7584 0.64655,-5.62688 1.36234,-12.08483 4.34256,-16.7584 z"
         style="opacity:0.7;fill:#cccccc;fill-opacity:1;stroke:none;stroke-width:0.09630007px;stroke-linecap:butt;stroke-linejoin:miter;stroke-opacity:1"
         inkscape:export-filename="/home/siqueira/Pictures/flusp.png"
         inkscape:export-xdpi="293.84"
         inkscape:export-ydpi="293.84" />
      <path
         inkscape:transform-center-y="-24.35266"
         inkscape:transform-center-x="-5.8037583"
         style="fill:#9c9c9c;stroke:none;stroke-width:0.09630007px;stroke-linecap:butt;stroke-linejoin:miter;stroke-opacity:1"
         d="m 133.90435,107.11857 c 5.05455,5.60118 3.02432,14.62351 -4.34254,16.75838 0.64654,-5.62687 1.36233,-12.08482 4.34254,-16.75838 z"
         id="path3325"
         inkscape:connector-curvature="0"
         sodipodi:nodetypes="ccc"
         inkscape:export-filename="/home/siqueira/Pictures/flusp.png"
         inkscape:export-xdpi="293.84"
         inkscape:export-ydpi="293.84" />
      <ellipse
         inkscape:transform-center-y="-28.954655"
         inkscape:transform-center-x="-1.061834"
         transform="rotate(-15.797397)"
         style="opacity:1;fill:#e37404;fill-opacity:1;stroke:#000000;stroke-width:1.09190655;stroke-linecap:round;stroke-linejoin:round;stroke-miterlimit:4;stroke-dasharray:none;stroke-dashoffset:0;stroke-opacity:1"
         id="ellipse3327"
         cx="89.779648"
         cy="143.75632"
         inkscape:export-filename="/home/siqueira/Pictures/flusp.png"
         inkscape:export-xdpi="293.84"
         inkscape:export-ydpi="293.84"
         rx="10.323222"
         ry="10.321696" />
      <ellipse
         inkscape:transform-center-y="-28.954655"
         inkscape:transform-center-x="-1.061834"
         transform="rotate(-15.797397)"
         style="opacity:1;fill:#000000;fill-opacity:1;stroke:none;stroke-width:1.45587516;stroke-linecap:round;stroke-linejoin:round;stroke-miterlimit:4;stroke-dasharray:none;stroke-dashoffset:0;stroke-opacity:1"
         id="ellipse3329"
         cx="89.779648"
         cy="143.75632"
         rx="7.4965067"
         ry="7.7014403"
         inkscape:export-filename="/home/siqueira/Pictures/flusp.png"
         inkscape:export-xdpi="293.84"
         inkscape:export-ydpi="293.84" />
      <path
         inkscape:transform-center-y="-32.406064"
         inkscape:transform-center-x="-6.3132296"
         style="opacity:1;fill:#ffffff;fill-opacity:1;stroke:none;stroke-width:1.45587516;stroke-linecap:round;stroke-linejoin:round;stroke-miterlimit:4;stroke-dasharray:none;stroke-dashoffset:0;stroke-opacity:1"
         d="m 130.71322,109.5622 c -0.30098,0.62242 -0.7485,-0.37197 -2.15199,-1.21722 -1.44182,-0.86835 -2.5825,-0.4134 -2.53242,-1.23184 0.39657,-1.32137 5.04757,1.24892 4.68441,2.44906 z"
         id="path3331"
         inkscape:connector-curvature="0"
         sodipodi:nodetypes="cscc"
         inkscape:export-filename="/home/siqueira/Pictures/flusp.png"
         inkscape:export-xdpi="293.84"
         inkscape:export-ydpi="293.84" />
      <path
         inkscape:transform-center-y="-23.682787"
         inkscape:transform-center-x="-2.2831072"
         style="fill:none;stroke:#ffffff;stroke-width:1.6378597;stroke-linecap:round;stroke-linejoin:round;stroke-miterlimit:4;stroke-dasharray:none;stroke-opacity:1"
         d="m 123.27556,122.30437 c 5.15026,1.51332 12.57181,-2.69277 10.58873,-11.03397"
         id="path3337"
         inkscape:connector-curvature="0"
         sodipodi:nodetypes="cc"
         inkscape:export-filename="/home/siqueira/Pictures/flusp.png"
         inkscape:export-xdpi="293.84"
         inkscape:export-ydpi="293.84" />
    </g>
    <path
       style="opacity:1;fill:#ffb500;fill-opacity:1;stroke:none;stroke-width:5.50252008;stroke-linecap:round;stroke-linejoin:round;stroke-miterlimit:4;stroke-dasharray:none;stroke-dashoffset:0;stroke-opacity:1"
       d="m 486.75977,344.00586 a 69.759326,68.288304 74.202603 0 0 -20.26758,2.49609 69.759326,68.288304 74.202603 0 0 -46.7168,85.71485 69.759326,68.288304 74.202603 0 0 84.69922,48.53515 69.759326,68.288304 74.202603 0 0 46.71875,-85.71484 69.759326,68.288304 74.202603 0 0 -64.43359,-51.03125 z m -5.26172,24.55469 a 52.34101,52.34874 74.202603 0 1 49.09961,38.07422 52.34101,52.34874 74.202603 0 1 -36.12305,64.61523 52.34101,52.34874 74.202603 0 1 -64.62109,-36.11133 52.34101,52.34874 74.202603 0 1 36.12304,-64.61523 52.34101,52.34874 74.202603 0 1 15.52149,-1.96289 z"
       transform="scale(0.26458333)"
       id="ellipse3317"
       inkscape:connector-curvature="0" />
    <path
       inkscape:export-ydpi="293.84"
       inkscape:export-xdpi="293.84"
       inkscape:export-filename="/home/siqueira/Pictures/flusp.png"
       sodipodi:nodetypes="cc"
       inkscape:connector-curvature="0"
       id="path3339"
       d="m 111.3952,126.50258 c 1.72639,3.5634 2.3031,8.91179 5.45084,10.26825"
       style="fill:none;stroke:#000000;stroke-width:1.45587528;stroke-linecap:round;stroke-linejoin:round;stroke-miterlimit:4;stroke-dasharray:none;stroke-opacity:1"
       inkscape:transform-center-x="20.634005"
       inkscape:transform-center-y="-17.679736" />
    <path
       inkscape:connector-curvature="0"
       id="path3341"
       d="m 134.0985,146.91113 a 6.4742576,6.4694462 56.155533 0 0 2.97782,6.38875 6.4742576,6.4694462 56.155533 0 0 8.91456,-2.06315 6.4742576,6.4694462 56.155533 0 0 0.29484,-6.30288 6.4742576,6.4694462 56.155533 0 1 -0.90922,2.52965 6.4742576,6.4694462 56.155533 0 1 -8.91436,2.06315 6.4742576,6.4694462 56.155533 0 1 -2.36364,-2.61552 z"
       style="opacity:1;fill:#0095ad;fill-opacity:1;stroke:#00ffff;stroke-width:2.54778218;stroke-linecap:round;stroke-linejoin:round;stroke-miterlimit:4;stroke-dasharray:none;stroke-dashoffset:0;stroke-opacity:1"
       inkscape:transform-center-x="5.1994928"
       inkscape:transform-center-y="10.656967" />
    <ellipse
       cy="196.6519"
       cx="-50.072586"
       id="ellipse3343"
       style="opacity:1;fill:#0095ad;fill-opacity:1;stroke:none;stroke-width:2.54778242;stroke-linecap:round;stroke-linejoin:round;stroke-miterlimit:4;stroke-dasharray:none;stroke-dashoffset:0;stroke-opacity:1"
       transform="matrix(0.52901428,-0.84861292,0.84831868,0.529486,0,0)"
       rx="7.0351205"
       ry="7.0385928"
       inkscape:transform-center-x="4.7490712"
       inkscape:transform-center-y="8.2678096" />
    <path
       inkscape:connector-curvature="0"
       id="path3347"
       d="m 152.15833,140.82611 a 6.4742141,6.4694891 62.241276 0 0 2.38786,6.63191 6.4742141,6.4694891 62.241276 0 0 9.06456,-1.24878 6.4742141,6.4694891 62.241276 0 0 0.86364,-6.25042 6.4742141,6.4694891 62.241276 0 1 -1.13427,2.43708 6.4742141,6.4694891 62.241276 0 1 -9.06438,1.24873 6.4742141,6.4694891 62.241276 0 1 -2.11741,-2.81852 z"
       style="opacity:1;fill:#0095ad;fill-opacity:1;stroke:#00ffff;stroke-width:2.54778218;stroke-linecap:round;stroke-linejoin:round;stroke-miterlimit:4;stroke-dasharray:none;stroke-dashoffset:0;stroke-opacity:1"
       inkscape:transform-center-x="-13.109049"
       inkscape:transform-center-y="14.479312" />
    <ellipse
       cy="211.45215"
       cx="-16.774137"
       id="ellipse3349"
       style="opacity:1;fill:#0095ad;fill-opacity:1;stroke:none;stroke-width:2.54778218;stroke-linecap:round;stroke-linejoin:round;stroke-miterlimit:4;stroke-dasharray:none;stroke-dashoffset:0;stroke-opacity:1"
       transform="matrix(0.60357915,-0.79730309,0.79696442,0.60402626,0,0)"
       rx="7.0352125"
       ry="7.0385017"
       inkscape:transform-center-x="-13.688173"
       inkscape:transform-center-y="12.358658" />
    <path
       style="opacity:1;fill:#0095ad;fill-opacity:1;stroke:#00ffff;stroke-width:2.54778218;stroke-linecap:round;stroke-linejoin:round;stroke-miterlimit:4;stroke-dasharray:none;stroke-dashoffset:0;stroke-opacity:1"
       d="m 145.00809,145.84629 a 6.474433,6.4692708 40.944651 0 0 4.39656,5.50968 6.474433,6.4692708 40.944651 0 0 8.17979,-4.10074 6.474433,6.4692708 40.944651 0 0 -1.1953,-6.19543 6.474433,6.4692708 40.944651 0 1 -0.289,2.67245 6.474433,6.4692708 40.944651 0 1 -8.17965,4.10061 6.474433,6.4692708 40.944651 0 1 -2.9124,-1.98657 z"
       id="path3353"
       inkscape:connector-curvature="0"
       inkscape:transform-center-x="-5.6068648"
       inkscape:transform-center-y="14.445198" />
    <ellipse
       ry="7.038835"
       rx="7.0348792"
       transform="matrix(0.31468655,-0.94919565,0.94901746,0.3152235,0,0)"
       style="opacity:1;fill:#0095ad;fill-opacity:1;stroke:none;stroke-width:2.54778242;stroke-linecap:round;stroke-linejoin:round;stroke-miterlimit:4;stroke-dasharray:none;stroke-dashoffset:0;stroke-opacity:1"
       id="ellipse3355"
       cx="-89.149208"
       cy="188.67334"
       inkscape:transform-center-x="-5.7757207"
       inkscape:transform-center-y="11.325436" />
    <path
       inkscape:export-ydpi="293.84"
       inkscape:export-xdpi="293.84"
       inkscape:export-filename="/home/siqueira/Pictures/flusp.png"
       style="fill:none;stroke:#693a20;stroke-width:2.54778218;stroke-linecap:butt;stroke-linejoin:miter;stroke-miterlimit:4;stroke-dasharray:none;stroke-opacity:1"
       d="m 157.35449,195.37515 c -5.25178,-5.256 -12.80392,2.06556 -7.44098,7.43281"
       id="path3371"
       inkscape:connector-curvature="0"
       sodipodi:nodetypes="cc" />
    <path
       inkscape:export-ydpi="293.84"
       inkscape:export-xdpi="293.84"
       inkscape:export-filename="/home/siqueira/Pictures/flusp.png"
       sodipodi:nodetypes="cc"
       inkscape:connector-curvature="0"
       id="path3373"
       d="m 144.82102,195.37515 c -5.25176,-5.256 -12.80391,2.06556 -7.44097,7.43281"
       style="fill:none;stroke:#693a20;stroke-width:2.54778218;stroke-linecap:butt;stroke-linejoin:miter;stroke-miterlimit:4;stroke-dasharray:none;stroke-opacity:1" />
    <g
       id="g1299"
       transform="translate(5.8208336)">
      <g
         id="g1154">
        <g
           transform="matrix(1.5180646,0,0,1.5180646,16.490563,-209.2584)"
           id="g1076-9">
          <rect
             y="252.79034"
             x="9.0098763"
             height="31.653948"
             width="6.5689249"
             id="rect1009-1"
             style="opacity:1;fill:#9c4e00;fill-opacity:1;fill-rule:evenodd;stroke:#582c00;stroke-width:1.34613144;stroke-linejoin:round;stroke-miterlimit:4;stroke-dasharray:none;stroke-opacity:1" />
          <path
             sodipodi:nodetypes="ccccc"
             inkscape:connector-curvature="0"
             id="rect1009-3-27"
             d="m 15.578801,252.79036 h 2.93047 l 0.05685,29.03876 -2.987322,2.61519 z"
             style="opacity:1;fill:#9c4e00;fill-opacity:1;fill-rule:evenodd;stroke:#582c00;stroke-width:1.34599996;stroke-linejoin:round;stroke-miterlimit:4;stroke-dasharray:none;stroke-opacity:1" />
        </g>
        <g
           transform="matrix(1.5180646,0,0,1.5180646,162.77439,-209.25843)"
           id="g1076-0">
          <rect
             y="252.79034"
             x="9.0098763"
             height="31.653948"
             width="6.5689249"
             id="rect1009-9"
             style="opacity:1;fill:#9c4e00;fill-opacity:1;fill-rule:evenodd;stroke:#582c00;stroke-width:1.34613144;stroke-linejoin:round;stroke-miterlimit:4;stroke-dasharray:none;stroke-opacity:1" />
          <path
             sodipodi:nodetypes="ccccc"
             inkscape:connector-curvature="0"
             id="rect1009-3-3"
             d="m 15.578801,252.79036 h 2.93047 l 0.05685,29.03876 -2.987322,2.61519 z"
             style="opacity:1;fill:#9c4e00;fill-opacity:1;fill-rule:evenodd;stroke:#582c00;stroke-width:1.34599996;stroke-linejoin:round;stroke-miterlimit:4;stroke-dasharray:none;stroke-opacity:1" />
        </g>
        <g
           id="g1139">
          <rect
             y="194.95186"
             x="157.64046"
             height="48.052738"
             width="9.9720526"
             id="rect1009-6"
             style="opacity:1;fill:#9c4e00;fill-opacity:1;fill-rule:evenodd;stroke:#582c00;stroke-width:2.04351449;stroke-linejoin:round;stroke-miterlimit:4;stroke-dasharray:none;stroke-opacity:1" />
          <path
             sodipodi:nodetypes="ccccc"
             inkscape:connector-curvature="0"
             id="rect1009-3-2"
             d="m 167.61252,194.95188 4.44864,-9.67454 0.0863,53.75725 -4.53495,3.97003 z"
             style="opacity:1;fill:#9c4e00;fill-opacity:1;fill-rule:evenodd;stroke:#582c00;stroke-width:2.04331493;stroke-linejoin:round;stroke-miterlimit:4;stroke-dasharray:none;stroke-opacity:1" />
        </g>
        <path
           style="opacity:1;fill:#9c4e00;fill-opacity:1;fill-rule:evenodd;stroke:#582c00;stroke-width:2.08540273;stroke-linejoin:round;stroke-miterlimit:4;stroke-dasharray:none;stroke-opacity:1"
           d="M 30.168137,174.49367 H 190.87266 l -23.26014,20.45821 H 6.9076572 Z"
           id="rect991"
           inkscape:connector-curvature="0"
           sodipodi:nodetypes="ccccc" />
        <g
           id="g1076"
           transform="matrix(1.5180646,0,0,1.5180646,-6.8738051,-188.90408)">
          <rect
             y="252.79034"
             x="9.0098763"
             height="31.653948"
             width="6.5689249"
             id="rect1009"
             style="opacity:1;fill:#9c4e00;fill-opacity:1;fill-rule:evenodd;stroke:#582c00;stroke-width:1.34613144;stroke-linejoin:round;stroke-miterlimit:4;stroke-dasharray:none;stroke-opacity:1" />
          <path
             sodipodi:nodetypes="ccccc"
             inkscape:connector-curvature="0"
             id="rect1009-3"
             d="m 15.578801,252.79036 h 2.93047 l 0.05685,29.03876 -2.987322,2.61519 z"
             style="opacity:1;fill:#9c4e00;fill-opacity:1;fill-rule:evenodd;stroke:#582c00;stroke-width:1.34599996;stroke-linejoin:round;stroke-miterlimit:4;stroke-dasharray:none;stroke-opacity:1" />
        </g>
      </g>
      <g
         id="g1219">
        <g
           id="g1138"
           transform="matrix(1.5180646,0,0,1.5180646,-3.6710181,-186.62696)">
          <path
             sodipodi:nodetypes="ccccc"
             inkscape:connector-curvature="0"
             id="rect900"
             d="m 52.170738,241.37266 41.741941,-0.52814 -9.88501,6.54718 H 48.6216 Z"
             style="opacity:1;fill:#808080;fill-opacity:1;fill-rule:evenodd;stroke:#000000;stroke-width:1.21113443;stroke-linejoin:round;stroke-miterlimit:4;stroke-dasharray:none;stroke-opacity:1" />
          <path
             sodipodi:nodetypes="ccccc"
             inkscape:connector-curvature="0"
             id="rect903"
             d="m 40.982987,218.53399 37.372,2.5e-4 4.999977,28.86924 H 45.982577 Z"
             style="opacity:1;fill:#c0c0c0;fill-opacity:1;fill-rule:evenodd;stroke:#000000;stroke-width:1.67799997;stroke-linejoin:round;stroke-miterlimit:4;stroke-dasharray:none;stroke-opacity:1" />
        </g>
        <g
           id="g1090"
           transform="matrix(0.65510041,0,0.10312295,0.65510041,27.317158,6.5091389)">
          <circle
             r="7.8363762"
             cy="245.82169"
             cx="55.435104"
             id="path1029"
             style="opacity:1;fill:#ffffff;fill-opacity:1;fill-rule:evenodd;stroke:#000000;stroke-width:1.34599996;stroke-linejoin:round;stroke-miterlimit:4;stroke-dasharray:none;stroke-opacity:1" />
          <g
             id="g931"
             transform="matrix(0.05516323,0,0,0.05516323,49.562208,239.39179)">
            <path
               inkscape:export-ydpi="293.84"
               inkscape:export-xdpi="293.84"
               inkscape:export-filename="/home/siqueira/Pictures/flusp.png"
               sodipodi:nodetypes="ccc"
               inkscape:connector-curvature="0"
               id="path3223-3"
               d="m 158.34726,114.76818 c 20.92519,1.73821 10.47691,70.9489 -6.57482,71.46565 -20.92519,-1.73815 -10.47687,-70.94884 6.57482,-71.46565 z"
               style="opacity:1;fill:#0095ad;fill-opacity:1;stroke:#000000;stroke-width:3.78468919;stroke-linecap:round;stroke-linejoin:round;stroke-miterlimit:4;stroke-dasharray:none;stroke-dashoffset:0;stroke-opacity:1" />
            <path
               inkscape:export-ydpi="293.84"
               inkscape:export-xdpi="293.84"
               inkscape:export-filename="/home/siqueira/Pictures/flusp.png"
               sodipodi:nodetypes="cccc"
               inkscape:connector-curvature="0"
               id="path3225-6"
               d="m 50.046038,73.973011 c 26.606176,-0.42673 32.489223,-5.78177 32.489223,19.37145 -22.363523,12.298129 -35.116289,-0.54243 -35.225476,-16.62547 0,-1.52127 1.220365,-2.74598 2.736253,-2.74598 z"
               style="opacity:1;fill:#382810;fill-opacity:1;stroke:#000000;stroke-width:2.16267943;stroke-linecap:round;stroke-linejoin:round;stroke-miterlimit:4;stroke-dasharray:none;stroke-dashoffset:0;stroke-opacity:1" />
            <path
               inkscape:export-ydpi="293.84"
               inkscape:export-xdpi="293.84"
               inkscape:export-filename="/home/siqueira/Pictures/flusp.png"
               sodipodi:nodetypes="cczac"
               inkscape:connector-curvature="0"
               id="path3227-7"
               d="m 106.581,107.7187 h 29.14333 c 31.95269,-10.893429 32.19679,47.93018 14.17692,68.80151 -18.01992,20.87139 -50.780224,16.99342 -63.455549,0 C 72.172739,157.38482 79.180456,98.354891 106.581,107.7187 Z"
               style="opacity:1;fill:#0095ad;fill-opacity:1;stroke:#000000;stroke-width:3.78468919;stroke-linecap:round;stroke-linejoin:round;stroke-miterlimit:4;stroke-dasharray:none;stroke-dashoffset:0;stroke-opacity:1" />
            <path
               inkscape:export-ydpi="293.84"
               inkscape:export-xdpi="293.84"
               inkscape:export-filename="/home/siqueira/Pictures/flusp.png"
               sodipodi:nodetypes="ccc"
               inkscape:connector-curvature="0"
               id="path3229-5"
               d="m 86.015019,113.03284 c 17.540251,1.45698 -6.458362,73.14715 -20.751686,73.58032 -17.540287,-1.45698 6.458368,-73.14715 20.751686,-73.58032 z"
               style="opacity:1;fill:#0095ad;fill-opacity:1;stroke:#000000;stroke-width:3.78468919;stroke-linecap:round;stroke-linejoin:round;stroke-miterlimit:4;stroke-dasharray:none;stroke-dashoffset:0;stroke-opacity:1" />
            <path
               inkscape:export-ydpi="293.84"
               inkscape:export-xdpi="293.84"
               inkscape:export-filename="/home/siqueira/Pictures/flusp.png"
               sodipodi:nodetypes="sscccccsscs"
               inkscape:connector-curvature="0"
               id="path3231-3"
               d="m 168.85338,61.473151 c 0.98776,8.90757 -0.12773,24.32197 -2.77658,33.31534 -4.66608,15.842049 -14.09026,22.491239 -25.15765,15.275679 -4.20102,6.86272 -8.66164,2.96044 -11.16478,0 -2.73559,5.8868 -8.06541,4.45517 -11.16479,0 -1.71974,3.95033 -6.3651,6.18536 -11.16484,0 -2.15325,5.15127 -8.781341,4.92246 -11.164783,0 -16.227578,1.94297 -12.736374,-3.5424 -14.879683,-14.304849 -0.270733,-1.35942 -0.04485,-10.48149 -0.207041,-11.89492 -0.864395,-7.53173 -10.252602,-10.92793 -10.377667,-16.99667 1.140179,-67.42475957 92.804464,-52.7688 98.057814,-5.39458 z"
               style="opacity:1;fill:#0095ad;fill-opacity:1;stroke:#000000;stroke-width:3.78468919;stroke-linecap:round;stroke-linejoin:round;stroke-miterlimit:4;stroke-dasharray:none;stroke-dashoffset:0;stroke-opacity:1" />
            <path
               inkscape:connector-curvature="0"
               id="path3233-5"
               d="m 85.289455,85.832931 a 12.944131,12.990043 0 0 0 -7.688166,11.85294 12.944131,12.990043 0 0 0 12.944355,12.990279 12.944131,12.990043 0 0 0 11.009006,-6.18872 12.944131,12.990043 0 0 1 -5.256198,1.13702 12.944131,12.990043 0 0 1 -12.944089,-12.990009 12.944131,12.990043 0 0 1 1.935092,-6.80151 z"
               style="opacity:1;fill:#0095ad;fill-opacity:1;stroke:#000000;stroke-width:3.78468919;stroke-linecap:round;stroke-linejoin:round;stroke-miterlimit:4;stroke-dasharray:none;stroke-dashoffset:0;stroke-opacity:1" />
            <ellipse
               cy="96.139572"
               cx="92.394699"
               id="circle3235-6"
               style="opacity:1;fill:#0095ad;fill-opacity:1;stroke:none;stroke-width:3.78468919;stroke-linecap:round;stroke-linejoin:round;stroke-miterlimit:4;stroke-dasharray:none;stroke-dashoffset:0;stroke-opacity:1"
               rx="14.074178"
               ry="14.124097" />
            <path
               style="opacity:1;fill:#00c5d4;fill-opacity:1;stroke:#00ffff;stroke-width:3.78468919;stroke-linecap:round;stroke-linejoin:round;stroke-miterlimit:4;stroke-dasharray:none;stroke-dashoffset:0;stroke-opacity:1"
               d="m 92.794675,99.288611 a 9.6349849,9.5927267 88.947337 0 0 -0.111659,10.489399 9.6349849,9.5927267 88.947337 0 0 13.242214,2.9633 9.6349849,9.5927267 88.947337 0 0 4.43273,-8.26969 9.6349849,9.5927267 88.947337 0 1 -2.83661,2.81044 9.6349849,9.5927267 88.947337 0 1 -13.241941,-2.96319 9.6349849,9.5927267 88.947337 0 1 -1.484734,-5.030259 z"
               id="path3239-2"
               inkscape:connector-curvature="0" />
            <ellipse
               ry="10.463689"
               rx="10.442676"
               transform="matrix(0.84286389,-0.53812682,0.53482808,0.8449609,0,0)"
               style="opacity:1;fill:#0095ad;fill-opacity:1;stroke:none;stroke-width:3.78470397;stroke-linecap:round;stroke-linejoin:round;stroke-miterlimit:4;stroke-dasharray:none;stroke-dashoffset:0;stroke-opacity:1"
               id="ellipse3241-9"
               cx="30.577633"
               cy="141.25868" />
            <path
               inkscape:connector-curvature="0"
               id="path3245-1"
               d="m 68.322462,145.55512 a 3.5313459,8.5993736 17.231622 0 0 -2.816939,8.92815 3.5313459,8.5993736 17.231622 0 0 3.867684,3.98142 3.5313459,8.5993736 17.231622 0 0 3.747252,-6.56117 3.5313459,8.5993736 17.231622 0 1 -1.740825,2.08358 3.5313459,8.5993736 17.231622 0 1 -3.867605,-3.98137 3.5313459,8.5993736 17.231622 0 1 0.810433,-4.45061 z"
               style="opacity:1;fill:#0095ad;fill-opacity:1;stroke:#00ffff;stroke-width:3.78468871;stroke-linecap:round;stroke-linejoin:round;stroke-miterlimit:4;stroke-dasharray:none;stroke-dashoffset:0;stroke-opacity:1" />
            <ellipse
               cy="216.83304"
               cx="104.62332"
               id="ellipse3247-2"
               style="opacity:1;fill:#0095ad;fill-opacity:1;stroke:none;stroke-width:4.40695;stroke-linecap:round;stroke-linejoin:round;stroke-miterlimit:4;stroke-dasharray:none;stroke-dashoffset:0;stroke-opacity:1"
               transform="matrix(0.76780665,-0.64068163,-0.04597729,0.99894249,0,0)"
               rx="5.9655981"
               ry="8.1596022" />
            <path
               style="opacity:1;fill:#0095ad;fill-opacity:1;stroke:#00ffff;stroke-width:3.78468871;stroke-linecap:round;stroke-linejoin:round;stroke-miterlimit:4;stroke-dasharray:none;stroke-dashoffset:0;stroke-opacity:1"
               d="m 72.53569,135.64076 a 3.5313459,8.5993736 17.231622 0 0 -2.81694,8.92814 3.5313459,8.5993736 17.231622 0 0 3.867685,3.98143 3.5313459,8.5993736 17.231622 0 0 3.747252,-6.56117 3.5313459,8.5993736 17.231622 0 1 -1.740825,2.08358 3.5313459,8.5993736 17.231622 0 1 -3.867606,-3.98137 3.5313459,8.5993736 17.231622 0 1 0.810434,-4.45061 z"
               id="path3251-7"
               inkscape:connector-curvature="0" />
            <ellipse
               ry="8.1596022"
               rx="5.9655981"
               transform="matrix(0.76780665,-0.64068163,-0.04597729,0.99894249,0,0)"
               style="opacity:1;fill:#0095ad;fill-opacity:1;stroke:none;stroke-width:4.40695;stroke-linecap:round;stroke-linejoin:round;stroke-miterlimit:4;stroke-dasharray:none;stroke-dashoffset:0;stroke-opacity:1"
               id="ellipse3253-0"
               cx="109.71179"
               cy="210.17175" />
            <path
               style="opacity:1;fill:#0095ad;fill-opacity:1;stroke:#00ffff;stroke-width:3.78468895;stroke-linecap:round;stroke-linejoin:round;stroke-miterlimit:4;stroke-dasharray:none;stroke-dashoffset:0;stroke-opacity:1"
               d="m 64.496818,161.31413 a 3.5306913,8.6009691 10.877161 0 0 -1.810503,9.18708 3.5306913,8.6009691 10.877161 0 0 4.28474,3.52527 3.5306913,8.6009691 10.877161 0 0 2.99724,-6.93854 3.5306913,8.6009691 10.877161 0 1 -1.499235,2.26487 3.5306913,8.6009691 10.877161 0 1 -4.284648,-3.52518 3.5306913,8.6009691 10.877161 0 1 0.312406,-4.5135 z"
               id="path3257-9"
               inkscape:connector-curvature="0" />
            <ellipse
               ry="8.1595421"
               rx="5.9679413"
               transform="matrix(0.69180765,-0.72208183,0.06496142,0.99788778,0,0)"
               style="opacity:1;fill:#0095ad;fill-opacity:1;stroke:none;stroke-width:4.40779877;stroke-linecap:round;stroke-linejoin:round;stroke-miterlimit:4;stroke-dasharray:none;stroke-dashoffset:0;stroke-opacity:1"
               id="ellipse3259-3"
               cx="76.096779"
               cy="220.49402" />
            <path
               inkscape:connector-curvature="0"
               id="path3263-6"
               d="m 66.724327,168.29981 a 3.5313459,8.5993736 17.231622 0 0 -2.816941,8.92815 3.5313459,8.5993736 17.231622 0 0 3.867686,3.98142 3.5313459,8.5993736 17.231622 0 0 3.747251,-6.56118 3.5313459,8.5993736 17.231622 0 1 -1.740825,2.08359 3.5313459,8.5993736 17.231622 0 1 -3.867605,-3.98137 3.5313459,8.5993736 17.231622 0 1 0.810434,-4.45061 z"
               style="opacity:1;fill:#0095ad;fill-opacity:1;stroke:#00ffff;stroke-width:3.78468871;stroke-linecap:round;stroke-linejoin:round;stroke-miterlimit:4;stroke-dasharray:none;stroke-dashoffset:0;stroke-opacity:1" />
            <ellipse
               cy="239.12292"
               cx="103.87666"
               id="ellipse3265-0"
               style="opacity:1;fill:#0095ad;fill-opacity:1;stroke:none;stroke-width:4.40695;stroke-linecap:round;stroke-linejoin:round;stroke-miterlimit:4;stroke-dasharray:none;stroke-dashoffset:0;stroke-opacity:1"
               transform="matrix(0.76780665,-0.64068163,-0.04597729,0.99894249,0,0)"
               rx="5.9655981"
               ry="8.1596022" />
            <path
               style="opacity:1;fill:#0095ad;fill-opacity:1;stroke:#00ffff;stroke-width:3.78468871;stroke-linecap:round;stroke-linejoin:round;stroke-miterlimit:4;stroke-dasharray:none;stroke-dashoffset:0;stroke-opacity:1"
               d="m 69.920583,165.38379 a 3.5313459,8.5993736 17.231622 0 0 -2.816941,8.92815 3.5313459,8.5993736 17.231622 0 0 3.867686,3.98143 3.5313459,8.5993736 17.231622 0 0 3.747251,-6.56118 3.5313459,8.5993736 17.231622 0 1 -1.740826,2.08359 3.5313459,8.5993736 17.231622 0 1 -3.867604,-3.98137 3.5313459,8.5993736 17.231622 0 1 0.810434,-4.45062 z"
               id="path3269-6"
               inkscape:connector-curvature="0" />
            <ellipse
               ry="8.1596022"
               rx="5.9655981"
               transform="matrix(0.76780665,-0.64068163,-0.04597729,0.99894249,0,0)"
               style="opacity:1;fill:#0095ad;fill-opacity:1;stroke:none;stroke-width:4.40695;stroke-linecap:round;stroke-linejoin:round;stroke-miterlimit:4;stroke-dasharray:none;stroke-dashoffset:0;stroke-opacity:1"
               id="ellipse3271-2"
               cx="108.02396"
               cy="238.86374" />
            <path
               style="opacity:1;fill:#0095ad;fill-opacity:1;stroke:#00ffff;stroke-width:3.78468871;stroke-linecap:round;stroke-linejoin:round;stroke-miterlimit:4;stroke-dasharray:none;stroke-dashoffset:0;stroke-opacity:1"
               d="m 68.758342,152.99087 a 3.5313459,8.5993736 17.231622 0 0 -2.816941,8.92814 3.5313459,8.5993736 17.231622 0 0 3.867685,3.98143 3.5313459,8.5993736 17.231622 0 0 3.747251,-6.56117 3.5313459,8.5993736 17.231622 0 1 -1.740826,2.08358 3.5313459,8.5993736 17.231622 0 1 -3.867603,-3.98137 3.5313459,8.5993736 17.231622 0 1 0.810434,-4.45061 z"
               id="path3275-6"
               inkscape:connector-curvature="0" />
            <ellipse
               ry="8.1596022"
               rx="5.9655981"
               transform="matrix(0.76780665,-0.64068163,-0.04597729,0.99894249,0,0)"
               style="opacity:1;fill:#0095ad;fill-opacity:1;stroke:none;stroke-width:4.40695;stroke-linecap:round;stroke-linejoin:round;stroke-miterlimit:4;stroke-dasharray:none;stroke-dashoffset:0;stroke-opacity:1"
               id="ellipse3277-1"
               cx="105.67723"
               cy="224.95261" />
            <path
               inkscape:connector-curvature="0"
               id="path3281-8"
               d="m 75.005535,147.01313 a 3.5313459,8.5993736 17.231622 0 0 -2.816941,8.92815 3.5313459,8.5993736 17.231622 0 0 3.867686,3.98142 3.5313459,8.5993736 17.231622 0 0 3.74725,-6.56117 3.5313459,8.5993736 17.231622 0 1 -1.740826,2.08358 3.5313459,8.5993736 17.231622 0 1 -3.867603,-3.98137 3.5313459,8.5993736 17.231622 0 1 0.810434,-4.45061 z"
               style="opacity:1;fill:#0095ad;fill-opacity:1;stroke:#00ffff;stroke-width:3.78468871;stroke-linecap:round;stroke-linejoin:round;stroke-miterlimit:4;stroke-dasharray:none;stroke-dashoffset:0;stroke-opacity:1" />
            <ellipse
               cy="224.15637"
               cx="113.76595"
               id="ellipse3283-7"
               style="opacity:1;fill:#0095ad;fill-opacity:1;stroke:none;stroke-width:4.40695;stroke-linecap:round;stroke-linejoin:round;stroke-miterlimit:4;stroke-dasharray:none;stroke-dashoffset:0;stroke-opacity:1"
               transform="matrix(0.76780665,-0.64068163,-0.04597729,0.99894249,0,0)"
               rx="5.9655981"
               ry="8.1596022" />
            <path
               inkscape:connector-curvature="0"
               id="path3287-9"
               d="m 75.731946,155.76106 a 3.5313459,8.5993736 17.231622 0 0 -2.81694,8.92815 3.5313459,8.5993736 17.231622 0 0 3.867685,3.98143 3.5313459,8.5993736 17.231622 0 0 3.747251,-6.56118 3.5313459,8.5993736 17.231622 0 1 -1.740826,2.08358 3.5313459,8.5993736 17.231622 0 1 -3.867604,-3.98136 3.5313459,8.5993736 17.231622 0 1 0.810434,-4.45062 z"
               style="opacity:1;fill:#0095ad;fill-opacity:1;stroke:#00ffff;stroke-width:3.78468871;stroke-linecap:round;stroke-linejoin:round;stroke-miterlimit:4;stroke-dasharray:none;stroke-dashoffset:0;stroke-opacity:1" />
            <ellipse
               cy="233.89432"
               cx="115.29517"
               id="ellipse3289-2"
               style="opacity:1;fill:#0095ad;fill-opacity:1;stroke:none;stroke-width:4.40695;stroke-linecap:round;stroke-linejoin:round;stroke-miterlimit:4;stroke-dasharray:none;stroke-dashoffset:0;stroke-opacity:1"
               transform="matrix(0.76780665,-0.64068163,-0.04597729,0.99894249,0,0)"
               rx="5.9655981"
               ry="8.1596022" />
            <path
               style="opacity:1;fill:#0095ad;fill-opacity:1;stroke:#00ffff;stroke-width:3.78468871;stroke-linecap:round;stroke-linejoin:round;stroke-miterlimit:4;stroke-dasharray:none;stroke-dashoffset:0;stroke-opacity:1"
               d="m 79.50935,144.38875 a 3.5313459,8.5993736 17.231622 0 0 -2.816941,8.92815 3.5313459,8.5993736 17.231622 0 0 3.867685,3.98142 3.5313459,8.5993736 17.231622 0 0 3.747252,-6.56117 3.5313459,8.5993736 17.231622 0 1 -1.740827,2.08358 3.5313459,8.5993736 17.231622 0 1 -3.867603,-3.98137 3.5313459,8.5993736 17.231622 0 1 0.810434,-4.45061 z"
               id="path3293-0"
               inkscape:connector-curvature="0" />
            <ellipse
               ry="8.1596022"
               rx="5.9655981"
               transform="matrix(0.76780665,-0.64068163,-0.04597729,0.99894249,0,0)"
               style="opacity:1;fill:#0095ad;fill-opacity:1;stroke:none;stroke-width:4.40695;stroke-linecap:round;stroke-linejoin:round;stroke-miterlimit:4;stroke-dasharray:none;stroke-dashoffset:0;stroke-opacity:1"
               id="ellipse3295-2"
               cx="119.70245"
               cy="225.33661" />
            <path
               style="opacity:1;fill:#0095ad;fill-opacity:1;stroke:#00ffff;stroke-width:3.78468871;stroke-linecap:round;stroke-linejoin:round;stroke-miterlimit:4;stroke-dasharray:none;stroke-dashoffset:0;stroke-opacity:1"
               d="m 76.458358,128.78822 a 3.5313459,8.5993736 17.231622 0 0 -2.81694,8.92815 3.5313459,8.5993736 17.231622 0 0 3.867685,3.98142 3.5313459,8.5993736 17.231622 0 0 3.74725,-6.56116 3.5313459,8.5993736 17.231622 0 1 -1.740825,2.08358 3.5313459,8.5993736 17.231622 0 1 -3.867604,-3.98137 3.5313459,8.5993736 17.231622 0 1 0.810434,-4.45062 z"
               id="path3299-3"
               inkscape:connector-curvature="0" />
            <ellipse
               ry="8.1596022"
               rx="5.9655981"
               transform="matrix(0.76780665,-0.64068163,-0.04597729,0.99894249,0,0)"
               style="opacity:1;fill:#0095ad;fill-opacity:1;stroke:none;stroke-width:4.40695;stroke-linecap:round;stroke-linejoin:round;stroke-miterlimit:4;stroke-dasharray:none;stroke-dashoffset:0;stroke-opacity:1"
               id="ellipse3301-7"
               cx="114.59759"
               cy="206.4455" />
            <path
               inkscape:connector-curvature="0"
               id="path3305-5"
               d="m 80.381009,131.99582 a 3.5313459,8.5993736 17.231622 0 0 -2.816941,8.92815 3.5313459,8.5993736 17.231622 0 0 3.867686,3.98142 3.5313459,8.5993736 17.231622 0 0 3.747251,-6.56117 3.5313459,8.5993736 17.231622 0 1 -1.740825,2.08358 3.5313459,8.5993736 17.231622 0 1 -3.867606,-3.98137 3.5313459,8.5993736 17.231622 0 1 0.810435,-4.45061 z"
               style="opacity:1;fill:#0095ad;fill-opacity:1;stroke:#00ffff;stroke-width:3.78468871;stroke-linecap:round;stroke-linejoin:round;stroke-miterlimit:4;stroke-dasharray:none;stroke-dashoffset:0;stroke-opacity:1" />
            <ellipse
               cy="213.19223"
               cx="120.11049"
               id="ellipse3307-9"
               style="opacity:1;fill:#0095ad;fill-opacity:1;stroke:none;stroke-width:4.40695;stroke-linecap:round;stroke-linejoin:round;stroke-miterlimit:4;stroke-dasharray:none;stroke-dashoffset:0;stroke-opacity:1"
               transform="matrix(0.76780665,-0.64068163,-0.04597729,0.99894249,0,0)"
               rx="5.9655981"
               ry="8.1596022" />
            <path
               inkscape:connector-curvature="0"
               id="path3311-2"
               d="m 81.543314,121.06084 a 3.5313459,8.5993736 17.231622 0 0 -2.81694,8.92815 3.5313459,8.5993736 17.231622 0 0 3.867685,3.98142 3.5313459,8.5993736 17.231622 0 0 3.747252,-6.56116 3.5313459,8.5993736 17.231622 0 1 -1.740826,2.08358 3.5313459,8.5993736 17.231622 0 1 -3.867603,-3.98137 3.5313459,8.5993736 17.231622 0 1 0.810432,-4.45062 z"
               style="opacity:1;fill:#0095ad;fill-opacity:1;stroke:#00ffff;stroke-width:3.78468871;stroke-linecap:round;stroke-linejoin:round;stroke-miterlimit:4;stroke-dasharray:none;stroke-dashoffset:0;stroke-opacity:1" />
            <ellipse
               cy="202.81815"
               cx="121.00307"
               id="ellipse3313-2"
               style="opacity:1;fill:#0095ad;fill-opacity:1;stroke:none;stroke-width:4.40695;stroke-linecap:round;stroke-linejoin:round;stroke-miterlimit:4;stroke-dasharray:none;stroke-dashoffset:0;stroke-opacity:1"
               transform="matrix(0.76780665,-0.64068163,-0.04597729,0.99894249,0,0)"
               rx="5.9655981"
               ry="8.1596022" />
            <ellipse
               inkscape:export-ydpi="293.84"
               inkscape:export-xdpi="293.84"
               inkscape:export-filename="/home/siqueira/Pictures/flusp.png"
               ry="27.46842"
               rx="26.790199"
               cy="50.607723"
               cx="111.92519"
               id="ellipse3317-8"
               style="opacity:1;fill:#ffb500;fill-opacity:1;stroke:none;stroke-width:2.16267943;stroke-linecap:round;stroke-linejoin:round;stroke-miterlimit:4;stroke-dasharray:none;stroke-dashoffset:0;stroke-opacity:1" />
            <ellipse
               ry="20.609789"
               rx="20.536947"
               inkscape:export-ydpi="293.84"
               inkscape:export-xdpi="293.84"
               inkscape:export-filename="/home/siqueira/Pictures/flusp.png"
               style="opacity:1;fill:#ffffff;fill-opacity:1;stroke:none;stroke-width:2.16267943;stroke-linecap:round;stroke-linejoin:round;stroke-miterlimit:4;stroke-dasharray:none;stroke-dashoffset:0;stroke-opacity:1"
               id="ellipse3319-9"
               cx="109.16482"
               cy="52.794704" />
            <path
               inkscape:export-ydpi="293.84"
               inkscape:export-xdpi="293.84"
               inkscape:export-filename="/home/siqueira/Pictures/flusp.png"
               sodipodi:nodetypes="ccsscc"
               inkscape:connector-curvature="0"
               id="path3321-7"
               d="m 76.249056,54.870871 c 10.334336,21.127 3.849126,35.56711 -18.409183,29.84926 -5.411999,-1.51434 -10.048748,-8.80205 -13.636988,-6.83043 -4.40791,2.42207 -6.90743,15.32682 -6.90743,15.32682 -0.455987,1.2162 -2.337225,-1.04607 -2.337225,-2.34548 -3.46518,-34.53805 27.723595,-35.06698 41.290826,-36.00017 z"
               style="opacity:1;fill:#382810;fill-opacity:1;stroke:#000000;stroke-width:2.16267943;stroke-linecap:round;stroke-linejoin:round;stroke-miterlimit:4;stroke-dasharray:none;stroke-dashoffset:0;stroke-opacity:1" />
            <path
               inkscape:export-ydpi="293.84"
               inkscape:export-xdpi="293.84"
               inkscape:export-filename="/home/siqueira/Pictures/flusp.png"
               style="opacity:0.7;fill:#cccccc;fill-opacity:1;stroke:none;stroke-width:0.14305224px;stroke-linecap:butt;stroke-linejoin:miter;stroke-opacity:1"
               d="m 124.16046,46.499551 c 7.01302,8.62005 -1.12932,21.84417 -12.96038,22.23894 3.19379,-7.79585 6.82185,-16.75373 12.96038,-22.23894 z"
               id="path3323-3"
               inkscape:connector-curvature="0"
               sodipodi:nodetypes="ccc" />
            <path
               inkscape:export-ydpi="293.84"
               inkscape:export-xdpi="293.84"
               inkscape:export-filename="/home/siqueira/Pictures/flusp.png"
               sodipodi:nodetypes="ccc"
               inkscape:connector-curvature="0"
               id="path3325-6"
               d="m 123.85226,46.499551 c 4.95057,10.06885 -1.58798,22.16641 -12.96037,22.23894 3.19377,-7.79585 6.82184,-16.75373 12.96037,-22.23894 z"
               style="fill:#9c9c9c;stroke:none;stroke-width:0.14305224px;stroke-linecap:butt;stroke-linejoin:miter;stroke-opacity:1" />
            <ellipse
               ry="15.361018"
               rx="15.306727"
               inkscape:export-ydpi="293.84"
               inkscape:export-xdpi="293.84"
               inkscape:export-filename="/home/siqueira/Pictures/flusp.png"
               cy="52.794704"
               cx="109.16482"
               id="ellipse3327-1"
               style="opacity:1;fill:#e37404;fill-opacity:1;stroke:#000000;stroke-width:1.62200963;stroke-linecap:round;stroke-linejoin:round;stroke-miterlimit:4;stroke-dasharray:none;stroke-dashoffset:0;stroke-opacity:1" />
            <ellipse
               inkscape:export-ydpi="293.84"
               inkscape:export-xdpi="293.84"
               inkscape:export-filename="/home/siqueira/Pictures/flusp.png"
               ry="11.461484"
               rx="11.115424"
               cy="52.794704"
               cx="109.16482"
               id="ellipse3329-2"
               style="opacity:1;fill:#000000;fill-opacity:1;stroke:none;stroke-width:2.16267943;stroke-linecap:round;stroke-linejoin:round;stroke-miterlimit:4;stroke-dasharray:none;stroke-dashoffset:0;stroke-opacity:1" />
            <path
               inkscape:export-ydpi="293.84"
               inkscape:export-xdpi="293.84"
               inkscape:export-filename="/home/siqueira/Pictures/flusp.png"
               sodipodi:nodetypes="cscc"
               inkscape:connector-curvature="0"
               id="path3331-9"
               d="m 118.31292,48.705981 c -0.68065,0.76939 -0.91778,-0.8359 -2.57899,-2.61495 -1.7066,-1.82764 -3.51769,-1.63828 -3.11586,-2.79002 1.09917,-1.73155 6.69745,3.83349 5.69485,5.40497 z"
               style="opacity:1;fill:#ffffff;fill-opacity:1;stroke:none;stroke-width:2.16267943;stroke-linecap:round;stroke-linejoin:round;stroke-miterlimit:4;stroke-dasharray:none;stroke-dashoffset:0;stroke-opacity:1" />
            <path
               inkscape:export-ydpi="293.84"
               inkscape:export-xdpi="293.84"
               inkscape:export-filename="/home/siqueira/Pictures/flusp.png"
               sodipodi:nodetypes="cc"
               inkscape:connector-curvature="0"
               id="path3333-3"
               d="m 109.07443,190.00373 c 10.64238,-2.86174 14.9041,12.19549 4.03648,15.11779"
               style="fill:none;stroke:#693a20;stroke-width:3.78468919;stroke-linecap:butt;stroke-linejoin:miter;stroke-miterlimit:4;stroke-dasharray:none;stroke-opacity:1" />
            <path
               inkscape:export-ydpi="293.84"
               inkscape:export-xdpi="293.84"
               inkscape:export-filename="/home/siqueira/Pictures/flusp.png"
               style="fill:none;stroke:#693a20;stroke-width:3.78468919;stroke-linecap:butt;stroke-linejoin:miter;stroke-miterlimit:4;stroke-dasharray:none;stroke-opacity:1"
               d="m 126.8366,190.00373 c 10.64238,-2.86174 14.9041,12.19549 4.03644,15.11779"
               id="path3335-1"
               inkscape:connector-curvature="0"
               sodipodi:nodetypes="cc" />
            <path
               inkscape:export-ydpi="293.84"
               inkscape:export-xdpi="293.84"
               inkscape:export-filename="/home/siqueira/Pictures/flusp.png"
               sodipodi:nodetypes="cc"
               inkscape:connector-curvature="0"
               id="path3337-9"
               d="m 102.55781,63.939641 c 6.73724,4.25371 19.02371,1.23738 19.56136,-11.51083"
               style="fill:none;stroke:#ffffff;stroke-width:2.43301439;stroke-linecap:round;stroke-linejoin:round;stroke-miterlimit:4;stroke-dasharray:none;stroke-opacity:1" />
            <path
               inkscape:export-ydpi="293.84"
               inkscape:export-xdpi="293.84"
               inkscape:export-filename="/home/siqueira/Pictures/flusp.png"
               sodipodi:nodetypes="cc"
               inkscape:connector-curvature="0"
               id="path3339-4"
               d="m 80.702924,68.133171 c 1.024722,5.8023 -0.311392,13.69494 3.632085,16.91272"
               style="fill:none;stroke:#000000;stroke-width:2.16267943;stroke-linecap:round;stroke-linejoin:round;stroke-miterlimit:4;stroke-dasharray:none;stroke-opacity:1" />
            <path
               inkscape:connector-curvature="0"
               id="path3341-7"
               d="m 104.85664,106.55677 a 9.6345793,9.5931309 87.084609 0 0 1.66971,10.35528 9.6345793,9.5931309 87.084609 0 0 13.55162,0.65726 9.6345793,9.5931309 87.084609 0 0 2.96488,-8.90638 9.6345793,9.5931309 87.084609 0 1 -2.31834,3.25413 9.6345793,9.5931309 87.084609 0 1 -13.55134,-0.65721 9.6345793,9.5931309 87.084609 0 1 -2.31653,-4.70308 z"
               style="opacity:1;fill:#0095ad;fill-opacity:1;stroke:#00ffff;stroke-width:3.78468919;stroke-linecap:round;stroke-linejoin:round;stroke-miterlimit:4;stroke-dasharray:none;stroke-dashoffset:0;stroke-opacity:1" />
            <ellipse
               cy="157.02187"
               cx="11.567993"
               id="ellipse3343-8"
               style="opacity:1;fill:#0095ad;fill-opacity:1;stroke:none;stroke-width:3.78470683;stroke-linecap:round;stroke-linejoin:round;stroke-miterlimit:4;stroke-dasharray:none;stroke-dashoffset:0;stroke-opacity:1"
               transform="matrix(0.73882097,-0.67390175,0.67077258,0.74166309,0,0)"
               rx="10.448756"
               ry="10.457614" />
            <path
               inkscape:connector-curvature="0"
               id="path3347-4"
               d="m 133.07968,105.15986 a 9.6348406,9.5928697 88.055783 0 0 0.72984,10.46443 9.6348406,9.5928697 88.055783 0 0 13.43689,1.88424 9.6348406,9.5928697 88.055783 0 0 3.75521,-8.60082 9.6348406,9.5928697 88.055783 0 1 -2.60204,3.03042 9.6348406,9.5928697 88.055783 0 1 -13.43661,-1.88425 9.6348406,9.5928697 88.055783 0 1 -1.88329,-4.89402 z"
               style="opacity:1;fill:#0095ad;fill-opacity:1;stroke:#00ffff;stroke-width:3.78468919;stroke-linecap:round;stroke-linejoin:round;stroke-miterlimit:4;stroke-dasharray:none;stroke-dashoffset:0;stroke-opacity:1" />
            <ellipse
               cy="171.84117"
               cx="48.43446"
               id="ellipse3349-5"
               style="opacity:1;fill:#0095ad;fill-opacity:1;stroke:none;stroke-width:3.78470516;stroke-linecap:round;stroke-linejoin:round;stroke-miterlimit:4;stroke-dasharray:none;stroke-dashoffset:0;stroke-opacity:1"
               transform="matrix(0.7967659,-0.60428809,0.60100959,0.79924181,0,0)"
               rx="10.445467"
               ry="10.460901" />
            <path
               style="opacity:1;fill:#0095ad;fill-opacity:1;stroke:#00ffff;stroke-width:3.78468919;stroke-linecap:round;stroke-linejoin:round;stroke-miterlimit:4;stroke-dasharray:none;stroke-dashoffset:0;stroke-opacity:1"
               d="m 120.85169,109.45193 a 9.6334282,9.594277 84.825226 0 0 4.04871,9.67121 9.6334282,9.594277 84.825226 0 0 13.32579,-2.5583 9.6334282,9.594277 84.825226 0 0 0.79542,-9.35623 9.6334282,9.594277 84.825226 0 1 -1.49106,3.70988 9.6334282,9.594277 84.825226 0 1 -13.32552,2.55819 9.6334282,9.594277 84.825226 0 1 -3.35334,-4.02475 z"
               id="path3353-0"
               inkscape:connector-curvature="0" />
            <ellipse
               ry="10.448996"
               rx="10.457365"
               transform="matrix(0.55978887,-0.82863528,0.82639351,0.56309304,0,0)"
               style="opacity:1;fill:#0095ad;fill-opacity:1;stroke:none;stroke-width:3.78470469;stroke-linecap:round;stroke-linejoin:round;stroke-miterlimit:4;stroke-dasharray:none;stroke-dashoffset:0;stroke-opacity:1"
               id="ellipse3355-3"
               cx="-17.120481"
               cy="169.03809" />
            <path
               inkscape:connector-curvature="0"
               id="path3359-6"
               d="m 80.194136,137.6296 a 3.5303343,8.6018389 4.8580666 0 0 -0.835896,9.32736 3.5303343,8.6018389 4.8580666 0 0 4.631006,3.05262 3.5303343,8.6018389 4.8580666 0 0 2.25209,-7.21686 3.5303343,8.6018389 4.8580666 0 1 -1.253106,2.4108 3.5303343,8.6018389 4.8580666 0 1 -4.630908,-3.05257 3.5303343,8.6018389 4.8580666 0 1 -0.163186,-4.52135 z"
               style="opacity:1;fill:#0095ad;fill-opacity:1;stroke:#00ffff;stroke-width:3.78468895;stroke-linecap:round;stroke-linejoin:round;stroke-miterlimit:4;stroke-dasharray:none;stroke-dashoffset:0;stroke-opacity:1" />
            <ellipse
               cy="206.27426"
               cx="78.617775"
               id="ellipse3361-1"
               style="opacity:1;fill:#0095ad;fill-opacity:1;stroke:none;stroke-width:4.40842056;stroke-linecap:round;stroke-linejoin:round;stroke-miterlimit:4;stroke-dasharray:none;stroke-dashoffset:0;stroke-opacity:1"
               transform="matrix(0.61192091,-0.79091896,0.16938145,0.98555057,0,0)"
               rx="5.9701424"
               ry="8.1588326" />
            <path
               style="opacity:1;fill:#0095ad;fill-opacity:1;stroke:#00ffff;stroke-width:3.78468895;stroke-linecap:round;stroke-linejoin:round;stroke-miterlimit:4;stroke-dasharray:none;stroke-dashoffset:0;stroke-opacity:1"
               d="m 81.650532,127.15872 a 8.6020336,3.5302542 88.367912 0 0 0.225291,9.3623 8.6020336,3.5302542 88.367912 0 0 4.946553,2.50494 8.6020336,3.5302542 88.367912 0 0 1.420636,-7.42686 8.6020336,3.5302542 88.367912 0 1 -0.972112,2.53804 8.6020336,3.5302542 88.367912 0 1 -4.94645,-2.50489 8.6020336,3.5302542 88.367912 0 1 -0.673918,-4.47353 z"
               id="path3365-0"
               inkscape:connector-curvature="0" />
            <ellipse
               ry="8.1573935"
               rx="5.9723845"
               transform="matrix(0.51824082,-0.85523473,0.27988978,0.96003214,0,0)"
               style="opacity:1;fill:#0095ad;fill-opacity:1;stroke:none;stroke-width:4.40885925;stroke-linecap:round;stroke-linejoin:round;stroke-miterlimit:4;stroke-dasharray:none;stroke-dashoffset:0;stroke-opacity:1"
               id="ellipse3367-6"
               cx="61.091835"
               cy="190.14224" />
            <path
               inkscape:export-ydpi="293.84"
               inkscape:export-xdpi="293.84"
               inkscape:export-filename="/home/siqueira/Pictures/flusp.png"
               style="fill:none;stroke:#693a20;stroke-width:3.78468919;stroke-linecap:butt;stroke-linejoin:miter;stroke-miterlimit:4;stroke-dasharray:none;stroke-opacity:1"
               d="m 111.53315,190.63369 c 7.78703,-7.82212 18.98495,3.07402 11.03307,11.06168"
               id="path3371-3"
               inkscape:connector-curvature="0"
               sodipodi:nodetypes="cc" />
            <path
               inkscape:export-ydpi="293.84"
               inkscape:export-xdpi="293.84"
               inkscape:export-filename="/home/siqueira/Pictures/flusp.png"
               sodipodi:nodetypes="cc"
               inkscape:connector-curvature="0"
               id="path3373-2"
               d="m 130.1171,190.63369 c 7.78705,-7.82212 18.98496,3.07402 11.03307,11.06168"
               style="fill:none;stroke:#693a20;stroke-width:3.78468919;stroke-linecap:butt;stroke-linejoin:miter;stroke-miterlimit:4;stroke-dasharray:none;stroke-opacity:1" />
          </g>
        </g>
      </g>
    </g>
    <g
       id="g898"
       inkscape:transform-center-x="18.092774"
       inkscape:transform-center-y="12.88434"
       transform="matrix(0.41864584,1.459197,-1.459197,0.41864584,444.73665,-108.84229)">
      <path
         inkscape:transform-center-y="15.115333"
         inkscape:transform-center-x="-5.4672479"
         style="opacity:1;fill:#0095ad;fill-opacity:1;stroke:#000000;stroke-width:1.67830932;stroke-linecap:round;stroke-linejoin:round;stroke-miterlimit:4;stroke-dasharray:none;stroke-dashoffset:0;stroke-opacity:1"
         d="m 113.5753,217.28911 c -7.79253,0.64491 2.86923,32.37713 9.21926,32.56886 7.79255,-0.6449 -2.86923,-32.37712 -9.21926,-32.56886 z"
         id="path3229"
         inkscape:connector-curvature="0"
         sodipodi:nodetypes="ccc"
         inkscape:export-filename="/home/siqueira/Pictures/flusp.png"
         inkscape:export-xdpi="293.84"
         inkscape:export-ydpi="293.84" />
      <path
         style="opacity:1;fill:#0095ad;fill-opacity:1;stroke:#00ffff;stroke-width:1.67830884;stroke-linecap:round;stroke-linejoin:round;stroke-miterlimit:4;stroke-dasharray:none;stroke-dashoffset:0;stroke-opacity:1"
         d="m 121.4355,231.68445 a 3.8075787,1.5683451 72.684062 0 1 1.25146,3.95187 3.8075787,1.5683451 72.684062 0 1 -1.71827,1.7623 3.8075787,1.5683451 72.684062 0 1 -1.66478,-2.90418 3.8075787,1.5683451 72.684062 0 0 0.77339,0.92226 3.8075787,1.5683451 72.684062 0 0 1.71824,-1.76227 3.8075787,1.5683451 72.684062 0 0 -0.36004,-1.96998 z"
         id="path3245"
         inkscape:connector-curvature="0" />
      <ellipse
         ry="3.6117132"
         rx="2.6463089"
         transform="matrix(-0.7689674,-0.63928799,0.04614682,0.99893467,0,0)"
         style="opacity:1;fill:#0095ad;fill-opacity:1;stroke:none;stroke-width:1.95278084;stroke-linecap:round;stroke-linejoin:round;stroke-miterlimit:4;stroke-dasharray:none;stroke-dashoffset:0;stroke-opacity:1"
         id="ellipse3247"
         cx="-148.41705"
         cy="138.72964" />
      <path
         inkscape:connector-curvature="0"
         id="path3251"
         d="m 119.5637,227.29606 a 3.8075787,1.5683451 72.684062 0 1 1.25147,3.95186 3.8075787,1.5683451 72.684062 0 1 -1.71828,1.7623 3.8075787,1.5683451 72.684062 0 1 -1.66477,-2.90417 3.8075787,1.5683451 72.684062 0 0 0.77339,0.92226 3.8075787,1.5683451 72.684062 0 0 1.71824,-1.76227 3.8075787,1.5683451 72.684062 0 0 -0.36005,-1.96998 z"
         style="opacity:1;fill:#0095ad;fill-opacity:1;stroke:#00ffff;stroke-width:1.67830884;stroke-linecap:round;stroke-linejoin:round;stroke-miterlimit:4;stroke-dasharray:none;stroke-dashoffset:0;stroke-opacity:1" />
      <ellipse
         cy="135.78116"
         cx="-146.15984"
         id="ellipse3253"
         style="opacity:1;fill:#0095ad;fill-opacity:1;stroke:none;stroke-width:1.95278084;stroke-linecap:round;stroke-linejoin:round;stroke-miterlimit:4;stroke-dasharray:none;stroke-dashoffset:0;stroke-opacity:1"
         transform="matrix(-0.7689674,-0.63928799,0.04614682,0.99893467,0,0)"
         rx="2.6463089"
         ry="3.6117132" />
      <path
         inkscape:connector-curvature="0"
         id="path3257"
         d="m 123.1351,238.65987 a 3.8075493,1.5683574 79.067607 0 1 0.80434,4.06647 3.8075493,1.5683574 79.067607 0 1 -1.90356,1.56039 3.8075493,1.5683574 79.067607 0 1 -1.33157,-3.0712 3.8075493,1.5683574 79.067607 0 0 0.66606,1.0025 3.8075493,1.5683574 79.067607 0 0 1.90352,-1.56036 3.8075493,1.5683574 79.067607 0 0 -0.13879,-1.9978 z"
         style="opacity:1;fill:#0095ad;fill-opacity:1;stroke:#00ffff;stroke-width:1.67830896;stroke-linecap:round;stroke-linejoin:round;stroke-miterlimit:4;stroke-dasharray:none;stroke-dashoffset:0;stroke-opacity:1" />
      <ellipse
         cy="106.42834"
         cx="-186.07642"
         id="ellipse3259"
         style="opacity:1;fill:#0095ad;fill-opacity:1;stroke:none;stroke-width:1.95276523;stroke-linecap:round;stroke-linejoin:round;stroke-miterlimit:4;stroke-dasharray:none;stroke-dashoffset:0;stroke-opacity:1"
         transform="matrix(-0.69313697,-0.7208059,-0.06520044,0.99787219,0,0)"
         rx="2.6462657"
         ry="3.6117146" />
      <path
         style="opacity:1;fill:#0095ad;fill-opacity:1;stroke:#00ffff;stroke-width:1.67830884;stroke-linecap:round;stroke-linejoin:round;stroke-miterlimit:4;stroke-dasharray:none;stroke-dashoffset:0;stroke-opacity:1"
         d="m 122.14549,241.75194 a 3.8075787,1.5683451 72.684062 0 1 1.25147,3.95186 3.8075787,1.5683451 72.684062 0 1 -1.71828,1.7623 3.8075787,1.5683451 72.684062 0 1 -1.66477,-2.90418 3.8075787,1.5683451 72.684062 0 0 0.77339,0.92227 3.8075787,1.5683451 72.684062 0 0 1.71824,-1.76228 3.8075787,1.5683451 72.684062 0 0 -0.36005,-1.96997 z"
         id="path3263"
         inkscape:connector-curvature="0" />
      <ellipse
         ry="3.6117132"
         rx="2.6463089"
         transform="matrix(-0.7689674,-0.63928799,0.04614682,0.99893467,0,0)"
         style="opacity:1;fill:#0095ad;fill-opacity:1;stroke:none;stroke-width:1.95278084;stroke-linecap:round;stroke-linejoin:round;stroke-miterlimit:4;stroke-dasharray:none;stroke-dashoffset:0;stroke-opacity:1"
         id="ellipse3265"
         cx="-148.74828"
         cy="148.59589" />
      <path
         inkscape:connector-curvature="0"
         id="path3269"
         d="m 120.72551,240.46122 a 3.8075787,1.5683451 72.684062 0 1 1.25147,3.95186 3.8075787,1.5683451 72.684062 0 1 -1.71828,1.7623 3.8075787,1.5683451 72.684062 0 1 -1.66478,-2.90417 3.8075787,1.5683451 72.684062 0 0 0.77339,0.92226 3.8075787,1.5683451 72.684062 0 0 1.71824,-1.76228 3.8075787,1.5683451 72.684062 0 0 -0.36004,-1.96997 z"
         style="opacity:1;fill:#0095ad;fill-opacity:1;stroke:#00ffff;stroke-width:1.67830884;stroke-linecap:round;stroke-linejoin:round;stroke-miterlimit:4;stroke-dasharray:none;stroke-dashoffset:0;stroke-opacity:1" />
      <ellipse
         cy="148.4812"
         cx="-146.90854"
         id="ellipse3271"
         style="opacity:1;fill:#0095ad;fill-opacity:1;stroke:none;stroke-width:1.95278084;stroke-linecap:round;stroke-linejoin:round;stroke-miterlimit:4;stroke-dasharray:none;stroke-dashoffset:0;stroke-opacity:1"
         transform="matrix(-0.7689674,-0.63928799,0.04614682,0.99893467,0,0)"
         rx="2.6463089"
         ry="3.6117132" />
      <path
         inkscape:connector-curvature="0"
         id="path3275"
         d="m 121.24185,234.97574 a 3.8075787,1.5683451 72.684062 0 1 1.25147,3.95186 3.8075787,1.5683451 72.684062 0 1 -1.71828,1.7623 3.8075787,1.5683451 72.684062 0 1 -1.66477,-2.90417 3.8075787,1.5683451 72.684062 0 0 0.77338,0.92226 3.8075787,1.5683451 72.684062 0 0 1.71825,-1.76228 3.8075787,1.5683451 72.684062 0 0 -0.36005,-1.96997 z"
         style="opacity:1;fill:#0095ad;fill-opacity:1;stroke:#00ffff;stroke-width:1.67830884;stroke-linecap:round;stroke-linejoin:round;stroke-miterlimit:4;stroke-dasharray:none;stroke-dashoffset:0;stroke-opacity:1" />
      <ellipse
         cy="142.32364"
         cx="-147.94954"
         id="ellipse3277"
         style="opacity:1;fill:#0095ad;fill-opacity:1;stroke:none;stroke-width:1.95278084;stroke-linecap:round;stroke-linejoin:round;stroke-miterlimit:4;stroke-dasharray:none;stroke-dashoffset:0;stroke-opacity:1"
         transform="matrix(-0.7689674,-0.63928799,0.04614682,0.99893467,0,0)"
         rx="2.6463089"
         ry="3.6117132" />
      <path
         style="opacity:1;fill:#0095ad;fill-opacity:1;stroke:#00ffff;stroke-width:1.67830884;stroke-linecap:round;stroke-linejoin:round;stroke-miterlimit:4;stroke-dasharray:none;stroke-dashoffset:0;stroke-opacity:1"
         d="m 118.46644,232.32981 a 3.8075787,1.5683451 72.684062 0 1 1.25147,3.95187 3.8075787,1.5683451 72.684062 0 1 -1.71828,1.76229 3.8075787,1.5683451 72.684062 0 1 -1.66478,-2.90417 3.8075787,1.5683451 72.684062 0 0 0.77339,0.92226 3.8075787,1.5683451 72.684062 0 0 1.71825,-1.76227 3.8075787,1.5683451 72.684062 0 0 -0.36005,-1.96998 z"
         id="path3281"
         inkscape:connector-curvature="0" />
      <ellipse
         ry="3.6117132"
         rx="2.6463089"
         transform="matrix(-0.7689674,-0.63928799,0.04614682,0.99893467,0,0)"
         style="opacity:1;fill:#0095ad;fill-opacity:1;stroke:none;stroke-width:1.95278084;stroke-linecap:round;stroke-linejoin:round;stroke-miterlimit:4;stroke-dasharray:none;stroke-dashoffset:0;stroke-opacity:1"
         id="ellipse3283"
         cx="-144.36142"
         cy="141.97122" />
      <path
         style="opacity:1;fill:#0095ad;fill-opacity:1;stroke:#00ffff;stroke-width:1.67830884;stroke-linecap:round;stroke-linejoin:round;stroke-miterlimit:4;stroke-dasharray:none;stroke-dashoffset:0;stroke-opacity:1"
         d="m 118.14372,236.20191 a 3.8075787,1.5683451 72.684062 0 1 1.25147,3.95187 3.8075787,1.5683451 72.684062 0 1 -1.71828,1.7623 3.8075787,1.5683451 72.684062 0 1 -1.66478,-2.90418 3.8075787,1.5683451 72.684062 0 0 0.77339,0.92226 3.8075787,1.5683451 72.684062 0 0 1.71825,-1.76227 3.8075787,1.5683451 72.684062 0 0 -0.36005,-1.96998 z"
         id="path3287"
         inkscape:connector-curvature="0" />
      <ellipse
         ry="3.6117132"
         rx="2.6463089"
         transform="matrix(-0.7689674,-0.63928799,0.04614682,0.99893467,0,0)"
         style="opacity:1;fill:#0095ad;fill-opacity:1;stroke:none;stroke-width:1.95278084;stroke-linecap:round;stroke-linejoin:round;stroke-miterlimit:4;stroke-dasharray:none;stroke-dashoffset:0;stroke-opacity:1"
         id="ellipse3289"
         cx="-143.68307"
         cy="146.28156" />
      <path
         inkscape:connector-curvature="0"
         id="path3293"
         d="m 116.46555,231.16818 a 3.8075787,1.5683451 72.684062 0 1 1.25147,3.95187 3.8075787,1.5683451 72.684062 0 1 -1.71828,1.7623 3.8075787,1.5683451 72.684062 0 1 -1.66478,-2.90417 3.8075787,1.5683451 72.684062 0 0 0.77339,0.92225 3.8075787,1.5683451 72.684062 0 0 1.71825,-1.76227 3.8075787,1.5683451 72.684062 0 0 -0.36005,-1.96998 z"
         style="opacity:1;fill:#0095ad;fill-opacity:1;stroke:#00ffff;stroke-width:1.67830884;stroke-linecap:round;stroke-linejoin:round;stroke-miterlimit:4;stroke-dasharray:none;stroke-dashoffset:0;stroke-opacity:1" />
      <ellipse
         cy="142.49362"
         cx="-141.72803"
         id="ellipse3295"
         style="opacity:1;fill:#0095ad;fill-opacity:1;stroke:none;stroke-width:1.95278084;stroke-linecap:round;stroke-linejoin:round;stroke-miterlimit:4;stroke-dasharray:none;stroke-dashoffset:0;stroke-opacity:1"
         transform="matrix(-0.7689674,-0.63928799,0.04614682,0.99893467,0,0)"
         rx="2.6463089"
         ry="3.6117132" />
      <path
         inkscape:connector-curvature="0"
         id="path3299"
         d="m 117.821,224.26292 a 3.8075787,1.5683451 72.684062 0 1 1.25147,3.95187 3.8075787,1.5683451 72.684062 0 1 -1.71828,1.7623 3.8075787,1.5683451 72.684062 0 1 -1.66478,-2.90418 3.8075787,1.5683451 72.684062 0 0 0.77339,0.92226 3.8075787,1.5683451 72.684062 0 0 1.71825,-1.76227 3.8075787,1.5683451 72.684062 0 0 -0.36005,-1.96998 z"
         style="opacity:1;fill:#0095ad;fill-opacity:1;stroke:#00ffff;stroke-width:1.67830884;stroke-linecap:round;stroke-linejoin:round;stroke-miterlimit:4;stroke-dasharray:none;stroke-dashoffset:0;stroke-opacity:1" />
      <ellipse
         cy="134.13181"
         cx="-143.99252"
         id="ellipse3301"
         style="opacity:1;fill:#0095ad;fill-opacity:1;stroke:none;stroke-width:1.95278084;stroke-linecap:round;stroke-linejoin:round;stroke-miterlimit:4;stroke-dasharray:none;stroke-dashoffset:0;stroke-opacity:1"
         transform="matrix(-0.7689674,-0.63928799,0.04614682,0.99893467,0,0)"
         rx="2.6463089"
         ry="3.6117132" />
      <path
         style="opacity:1;fill:#0095ad;fill-opacity:1;stroke:#00ffff;stroke-width:1.67830884;stroke-linecap:round;stroke-linejoin:round;stroke-miterlimit:4;stroke-dasharray:none;stroke-dashoffset:0;stroke-opacity:1"
         d="m 116.0783,225.6827 a 3.8075787,1.5683451 72.684062 0 1 1.25147,3.95187 3.8075787,1.5683451 72.684062 0 1 -1.71828,1.7623 3.8075787,1.5683451 72.684062 0 1 -1.66477,-2.90418 3.8075787,1.5683451 72.684062 0 0 0.77338,0.92226 3.8075787,1.5683451 72.684062 0 0 1.71825,-1.76227 3.8075787,1.5683451 72.684062 0 0 -0.36005,-1.96998 z"
         id="path3305"
         inkscape:connector-curvature="0" />
      <ellipse
         ry="3.6117132"
         rx="2.6463089"
         transform="matrix(-0.7689674,-0.63928799,0.04614682,0.99893467,0,0)"
         style="opacity:1;fill:#0095ad;fill-opacity:1;stroke:none;stroke-width:1.95278084;stroke-linecap:round;stroke-linejoin:round;stroke-miterlimit:4;stroke-dasharray:none;stroke-dashoffset:0;stroke-opacity:1"
         id="ellipse3307"
         cx="-141.54703"
         cy="137.1181" />
      <path
         style="opacity:1;fill:#0095ad;fill-opacity:1;stroke:#00ffff;stroke-width:1.67830884;stroke-linecap:round;stroke-linejoin:round;stroke-miterlimit:4;stroke-dasharray:none;stroke-dashoffset:0;stroke-opacity:1"
         d="m 115.56193,220.84255 a 3.8075787,1.5683451 72.684062 0 1 1.25147,3.95187 3.8075787,1.5683451 72.684062 0 1 -1.71828,1.76229 3.8075787,1.5683451 72.684062 0 1 -1.66478,-2.90416 3.8075787,1.5683451 72.684062 0 0 0.77339,0.92225 3.8075787,1.5683451 72.684062 0 0 1.71824,-1.76227 3.8075787,1.5683451 72.684062 0 0 -0.36004,-1.96998 z"
         id="path3311"
         inkscape:connector-curvature="0" />
      <ellipse
         ry="3.6117132"
         rx="2.6463089"
         transform="matrix(-0.7689674,-0.63928799,0.04614682,0.99893467,0,0)"
         style="opacity:1;fill:#0095ad;fill-opacity:1;stroke:none;stroke-width:1.95278084;stroke-linecap:round;stroke-linejoin:round;stroke-miterlimit:4;stroke-dasharray:none;stroke-dashoffset:0;stroke-opacity:1"
         id="ellipse3313"
         cx="-141.15108"
         cy="132.52621" />
      <path
         style="opacity:1;fill:#0095ad;fill-opacity:1;stroke:#00ffff;stroke-width:1.67830896;stroke-linecap:round;stroke-linejoin:round;stroke-miterlimit:4;stroke-dasharray:none;stroke-dashoffset:0;stroke-opacity:1"
         d="m 116.16132,228.17638 a 3.807533,1.5683642 85.116781 0 1 0.37136,4.12857 3.807533,1.5683642 85.116781 0 1 -2.0574,1.35118 3.807533,1.5683642 85.116781 0 1 -1.00052,-3.1944 3.807533,1.5683642 85.116781 0 0 0.55671,1.0671 3.807533,1.5683642 85.116781 0 0 2.05735,-1.35116 3.807533,1.5683642 85.116781 0 0 0.0725,-2.00129 z"
         id="path3359"
         inkscape:connector-curvature="0" />
      <ellipse
         ry="3.6117272"
         rx="2.6462245"
         transform="matrix(-0.61333241,-0.78982489,-0.16998927,0.98544591,0,0)"
         style="opacity:1;fill:#0095ad;fill-opacity:1;stroke:none;stroke-width:1.95275366;stroke-linecap:round;stroke-linejoin:round;stroke-miterlimit:4;stroke-dasharray:none;stroke-dashoffset:0;stroke-opacity:1"
         id="ellipse3361"
         cx="-206.14336"
         cy="67.889343" />
      <path
         inkscape:connector-curvature="0"
         id="path3365"
         d="m 115.51429,223.54166 a 1.5683655,3.8075296 1.640574 0 1 -0.10009,4.14403 1.5683655,3.8075296 1.640574 0 1 -2.19758,1.10877 1.5683655,3.8075296 1.640574 0 1 -0.63114,-3.28736 1.5683655,3.8075296 1.640574 0 0 0.43188,1.12342 1.5683655,3.8075296 1.640574 0 0 2.19754,-1.10875 1.5683655,3.8075296 1.640574 0 0 0.29939,-1.98011 z"
         style="opacity:1;fill:#0095ad;fill-opacity:1;stroke:#00ffff;stroke-width:1.67830896;stroke-linecap:round;stroke-linejoin:round;stroke-miterlimit:4;stroke-dasharray:none;stroke-dashoffset:0;stroke-opacity:1" />
      <ellipse
         cy="26.282381"
         cx="-233.74123"
         id="ellipse3367"
         style="opacity:1;fill:#0095ad;fill-opacity:1;stroke:none;stroke-width:1.9527458;stroke-linecap:round;stroke-linejoin:round;stroke-miterlimit:4;stroke-dasharray:none;stroke-dashoffset:0;stroke-opacity:1"
         transform="matrix(-0.51963937,-0.8543857,-0.28084256,0.95975385,0,0)"
         rx="2.6461833"
         ry="3.6117542" />
    </g>
  </g>
</svg>
